{
"code": 200,
"meta": {
"pagination": {
"total": 1267,
"pages": 64,
"page": 1,
"limit": 20
}
},
"data": [
{
"id": 16,
"user_id": 14,
"title": "Adhaero ut enim deorsum demulceo tum vir depulso celo compello eius attonbitus unde cruentus verecundia volo arca.",
"body": "Quia quae tres. Non caveo vel. Volaticus causa allatus. Super universe quod. Basium ipsum iusto. Sub talio alveus. Bellum titulus crebro. Voco vero balbus. Conculco molestiae defluo. Ars vos conculco. Curriculum nihil spoliatio. Enim strues rem. Vero impedit voro. Solum ventito cervus. Supplanto patruus et. Confido officia ullus. Cetera cavus coruscus. Confugo suscipit civis. Vito umbra consectetur. Amoveo aro adulatio. Deleniti talus veritas. Cibus decerno eum. Repellendus voluptatibus constans. Spiculum ocer apparatus.",
"created_at": "2021-02-02T03:50:04.235+05:30",
"updated_at": "2021-02-02T03:50:04.235+05:30"
},
{
"id": 17,
"user_id": 14,
"title": "Tonsor alioqui vinculum audacia illo tepesco expedita.",
"body": "Dolor commodo similique. Atrocitas aegrotatio adeptio. Commemoro talis ubi. Damno crapula atrocitas. Artificiose vivo peior. Collum et adsidue. Despecto carpo attollo. Circumvenio subito vilitas. Quis subvenio atrox. Tristis ullam textor. Decor curiositas dicta. Campana usque celo. Officiis teneo vester. Ver annus cubitum. Est deporto angustus.",
"created_at": "2021-02-02T03:50:04.243+05:30",
"updated_at": "2021-02-02T03:50:04.243+05:30"
},
{
"id": 18,
"user_id": 15,
"title": "Clarus coerceo sufficio tamisium cenaculum magnam temeritas angustus facilis adsum.",
"body": "Aspernatur in statua. Animi aut caterva. Molestiae deleo quia. Terra causa ubi. Utrimque coerceo chirographum. Iure enim charisma. Defleo solutio vitiosus. Versus auctus cogo. Apto patria suasoria. Beatae sollicito virgo. Custodia utrimque deleniti. Chirographum addo earum. Hic solum paens. Curo placeat corona. Unde optio currus. Adicio clarus aiunt. Deleo defluo quos. Comis vetus adstringo. Vorago conscendo bibo. Expedita turbo debitis. Quia voluptatem argentum. Stultus tutamen corrumpo. Delectatio pecco auxilium.",
"created_at": "2021-02-02T03:50:04.254+05:30",
"updated_at": "2021-02-02T03:50:04.254+05:30"
},
{
"id": 19,
"user_id": 15,
"title": "Peccatus curtus amiculum anser cerno fugit apparatus ventosus congregatio adstringo amaritudo earum.",
"body": "Et fugit arcesso. Credo substantia patrocinor. Amplexus damno dolorem. Et valetudo cena. Coruscus copia repudiandae. Suffoco vel absens. Iure arguo culpa. Iste alias solio. Excepturi delinquo iusto. Vilicus sed capitulus. Officia arx et. Atavus cinis contra. Compello cunae spiritus. Testimonium atqui cum. Conventus caelum coniuratio. Terror dapifer aeternus. Tamisium suasoria suggero. Necessitatibus curo antiquus. Comparo patruus cupio. Conduco valde suscipit. Ipsam delego caute. Attonbitus laboriosam aggero. Aspernatur cuppedia thesis. Somniculosus certe dapifer.",
"created_at": "2021-02-02T03:50:04.262+05:30",
"updated_at": "2021-02-02T03:50:04.262+05:30"
},
{
"id": 20,
"user_id": 16,
"title": "Tollo tubineus voluntarius tantillus validus acceptus apud tremo demulceo desidero absconditus arma.",
"body": "Tubineus curtus defero. Theatrum ago claudeo. Confugo strenuus calamitas. Administratio nam una. Approbo collum nam. Benigne decet viduata. Harum charisma tactus. Corroboro denego armo. Abeo demulceo colo. Aer expedita audio. Laudantium aut arto. Sustineo aedificium valens. Dolorem cavus et. Umbra terebro usque. Uredo curriculum degenero. Hic umerus trado. Vix vado summa. Adflicto cotidie tergum. Paulatim caste velit. Qui est et. Utroque aut abutor.",
"created_at": "2021-02-02T03:50:04.28+05:30",
"updated_at": "2021-02-02T03:50:04.28+05:30"
},
{
"id": 136,
"user_id": 137,
"title": "Cultura cogo cimentarius cilicium voluptatem addo aut ascit sint cervus ver.",
"body": "Impedit patruus ager. Contigo aut clementia. Suppono terminatio caritas. Conqueror acsi deleniti. Cognomen non cruciamentum. Ancilla temptatio delicate. Quaerat terga aufero. Tabula suspendo amaritudo. Soluta tego trado. Curatio sumptus et. Ipsam nihil tergiversatio. Alioqui abduco eum. Amplus curso ager. Abstergo colo sub. Arcus ademptio vallum. Substantia defetiscor stipes. Talio casso video. Ex tabernus ancilla. Autus umerus bos. Assentator modi pecunia. Stabilis quis circumvenio. Aspernatur solum voro. Veritatis vester cerno. Cunae illum defero. Paens aeger avaritia. Vesco succedo commodo. Conitor universe creta.",
"created_at": "2021-02-02T03:50:06.157+05:30",
"updated_at": "2021-02-02T03:50:06.157+05:30"
},
{
"id": 137,
"user_id": 137,
"title": "Vulgus alter adamo viduo audio molestiae tunc.",
"body": "Cui adstringo perspiciatis. Eos cenaculum sono. Auctus conforto super. Tendo et aeneus. Cuius trans adiuvo. Colloco clibanus tredecim. Crastinus colligo corroboro. Cavus benevolentia bonus. Praesentium aeternus alo. Casso creator convoco. Pectus adeptio soleo. Rerum caute cauda. Pecunia clementia tondeo. Veritatis est tabula. Xiphias necessitatibus sperno. Sufficio adamo sui. Bellicus suspendo uredo. Trans voro ubi. Architecto deduco verecundia. Coerceo patruus sustineo. Vehemens omnis casus. Paulatim tenetur triumphus. Autus dolorem celer. Culpa sunt amplexus. Sequi mollitia voluptate. Cervus verbera carus. Varius laudantium amet.",
"created_at": "2021-02-02T03:50:06.166+05:30",
"updated_at": "2021-02-02T03:50:06.166+05:30"
},
{
"id": 138,
"user_id": 139,
"title": "Turpis volaticus calculus casso volo thymum theca aperiam cauda tamisium thymbra rerum cumque.",
"body": "Cometes ante sustineo. Villa adhaero omnis. Viriliter avarus pecco. Bestia amplitudo ceno. Sumptus sustineo confugo. Itaque asporto argentum. Copia adeo valde. Balbus spero conicio. Coaegresco vero canonicus. Decor claustrum pauper. Laborum tubineus aureus. Circumvenio quasi bellicus. Quo explicabo clamo. Rem defleo victus. Varietas facilis amor. Vacuus auris vero. Capillus curso tantillus. Calculus amita vinco. Summisse in turpe. Depopulo viduata angustus. Quia centum molestias. Est adsum contabesco. Bonus desipio denuncio. Est quis aer. Aegrus nobis alioqui. Balbus theca bis. Debilito claudeo voluptatum.",
"created_at": "2021-02-02T03:50:06.185+05:30",
"updated_at": "2021-02-02T03:50:06.185+05:30"
},
{
"id": 139,
"user_id": 139,
"title": "Aer clam adversus abscido ago certus quia calamitas amplexus ultio constans aequus.",
"body": "Allatus adeptio demum. Administratio ambulo vel. Contego somniculosus excepturi. Sed adulescens cunae. Cauda aeternus itaque. Curo molestias crapula. Audax aegrus coruscus. Quo depereo auditor. Qui ullus tertius. Adipiscor absconditus avaritia. Ipsum tam capillus. Quibusdam aequitas utpote. Adfero voluptatem cunctatio. Eos confido cumque. Vinum suscipio constans.",
"created_at": "2021-02-02T03:50:06.189+05:30",
"updated_at": "2021-02-02T03:50:06.189+05:30"
},
{
"id": 140,
"user_id": 143,
"title": "Thema magnam vacuus patria stella civitas pecto acsi charisma ciminatio illo vis debeo.",
"body": "Minima vesper tardus. Agnitio rerum sumptus. Degusto ocer temptatio. Tremo thymum eos. Quo tamen vilitas. Sed causa deludo. Taedium basium amita. Unde vulgus acervus. Sono beatae vorago. Quidem vis tremo. Acsi volutabrum curvo. Civis corrigo nesciunt. Adfero somniculosus totam. Antea sophismata conduco. Et totus cursim. Curo aut validus. Sordeo venio vis. Eveniet basium est. Bestia suadeo spectaculum. Cotidie atrocitas non. Culpo aer tabula. Terminatio carbo adulatio. Apud abscido benigne. Bibo quis victus. Magni sophismata vulticulus. Facilis illum tot. Ut vero creator. Tres aegrus agnosco.",
"created_at": "2021-02-02T03:50:06.213+05:30",
"updated_at": "2021-02-02T03:50:06.213+05:30"
},
{
"id": 141,
"user_id": 144,
"title": "Adfectus cupressus eum socius accusamus aqua comptus spargo vespillo fuga subito natus maxime canis aro.",
"body": "Amaritudo utor vesco. Vicissitudo tametsi qui. Voluptate animi vulgus. Spiculum vinum adamo. Molestiae urbanus usitas. Artificiose cultura coaegresco. Autus temperantia thymbra. Bis dolor sit. Timidus ut solvo. Acceptus vitae vomer. Beatus canto cena. Viscus decerno ter. Qui concedo cado. Sopor ea defendo. Dapifer confugo tot. Provident calcar color. Tabgo fugit adhuc. Auxilium callide id. Nihil torqueo valens. Tardus temporibus adeo. Crustulum pauci usus. Ratione peccatus cum. Aperio amplitudo tempore. Usitas occaecati crapula. Clibanus inventore auctor. Sursum adimpleo colo. Cultura volaticus tribuo. Vito voluntarius crudelis.",
"created_at": "2021-02-02T03:50:06.229+05:30",
"updated_at": "2021-02-02T03:50:06.229+05:30"
},
{
"id": 142,
"user_id": 145,
"title": "Asper atrox cuppedia celer tepidus carpo solitudo tredecim deleniti doloribus coruscus.",
"body": "Decumbo appositus soluta. Apto adamo demergo. Cogo alius illo. Amaritudo arbitro a. Est subvenio maiores. Via consequatur facilis. Acsi rerum ipsa. Demoror sapiente est. Demum voluptate benigne. Quia defleo sufficio. Venustas spargo comptus. Angelus crur degusto. Theatrum at appositus. Perferendis color curto. Spoliatio coniuratio cetera. Varius sulum ut.",
"created_at": "2021-02-02T03:50:06.239+05:30",
"updated_at": "2021-02-02T03:50:06.239+05:30"
},
{
"id": 143,
"user_id": 145,
"title": "Venustas cibus est denuo suffoco vitium ascisco quia solum socius amet cupio uredo una voluptatem magni cedo.",
"body": "Carbo brevis catena. Ocer infit qui. Clarus thorax aut. Eligendi celebrer tibi. Conforto ut canonicus. Beneficium theca nobis. Sulum demitto dolor. Amet blandior thymbra. Volup barba assumenda. Aptus abutor architecto. Tumultus stips adsidue. Deorsum nemo virga. Tenetur aiunt pariatur. Cariosus complectus accusamus. Trepide odio bene.",
"created_at": "2021-02-02T03:50:06.245+05:30",
"updated_at": "2021-02-02T03:50:06.245+05:30"
},
{
"id": 144,
"user_id": 146,
"title": "Velum cunae spargo blanditiis caveo velut crepusculum pauci quos suscipio non cogo nihil somnus solutio accommodo.",
"body": "Est modi depono. Sumo laborum umerus. Vis ante combibo. Sto synagoga benigne. Vos verto desparatus. Cunae tristis inflammatio. Umquam demens verumtamen. Cultura cubo sed. Cauda uterque temperantia. Stillicidium amita utilis. Thymum consequatur claro. Adhaero fugiat audeo. Argumentum cupiditate modi. Corporis annus summopere. Ex voluptatem demum. Aro cognomen quis. Ater theologus comes. Somniculosus esse cotidie.",
"created_at": "2021-02-02T03:50:06.263+05:30",
"updated_at": "2021-02-02T03:50:06.263+05:30"
},
{
"id": 145,
"user_id": 146,
"title": "Sequi eos omnis auctor tergiversatio candidus dedecor suppono summa tamen abeo dolor tardus totidem aggero surgo blanditiis calco.",
"body": "Corporis antea curatio. Adficio perspiciatis celer. Fugit termes solio. Vicinus spero utpote. Vicissitudo aut brevis. Caterva inflammatio complectus. Conturbo cena auris. Altus colligo appositus. Candidus victoria animadverto. Sortitus campana amitto. Compono amoveo cuppedia. Odit crepusculum despirmatio. Aut clam inventore. Cattus vereor cinis. Infit spiculum acer. Eos degenero curvo.",
"created_at": "2021-02-02T03:50:06.268+05:30",
"updated_at": "2021-02-02T03:50:06.268+05:30"
},
{
"id": 146,
"user_id": 148,
"title": "Aequitas conitor abeo viscus caries alienus tendo vestrum tabella victus amita.",
"body": "Candidus tergo bardus. Apostolus ambulo spiritus. Desidero perspiciatis victus. Tot esse adnuo. Cunabula aut quia. Auditor dedico pauper. Adduco solutio acer. Cauda tabernus qui. Caste curtus adaugeo. Acies odio cribro. Arx animi tardus. Sordeo acidus decimus. Tactus cohaero animi. Considero alias substantia. Vigor tonsor uredo. Bellum aut ubi. Perspiciatis omnis acervus. Consequuntur acer curriculum. Peccatus non nam. Aut denuo textilis. Argumentum est amplitudo. Coerceo administratio debeo. Ager desolo voluptatem. Veniam causa conduco. Beatus triumphus tempore.",
"created_at": "2021-02-02T03:50:06.286+05:30",
"updated_at": "2021-02-02T03:50:06.286+05:30"
},
{
"id": 147,
"user_id": 148,
"title": "Blanditiis inflammatio aut vivo thymum cito universe incidunt thesaurus adsum somniculosus aeger illo sub delectatio ulciscor suffragium autem vorax.",
"body": "Voro animi coadunatio. Super defetiscor cunctatio. Deripio arx vix. Reiciendis admoneo suffoco. Cohaero ultio occaecati. Aiunt aperio ciminatio. Canonicus desparatus color. Vel claro villa. Stipes curvo crapula. Aliquid quis ars. Admiratio cunctatio summa. Tabesco deleniti depopulo. Clamo unus laudantium. Calamitas candidus comburo. Minima curvo ambitus. Clibanus aequitas cavus. Defungo similique attonbitus.",
"created_at": "2021-02-02T03:50:06.291+05:30",
"updated_at": "2021-02-02T03:50:06.291+05:30"
},
{
"id": 148,
"user_id": 149,
"title": "Sed deinde vitiosus tersus enim vado corona tenetur sapiente absconditus thorax repellendus pel video conscendo autem artificiose acer.",
"body": "Textor tempore alo. Acquiro tabgo cunctatio. Subvenio est absens. Chirographum eveniet cras. Bardus venia concido. Testimonium super nostrum. Comburo ut vespillo. Curiositas articulus corroboro. Eos comptus cotidie. Denuo tabgo curo. Volo vero amplus. Sit conforto curiositas. Illo coaegresco tenetur. Alveus defungo audentia. Tibi aduro tantillus. Comprehendo canonicus appono. Cursim assumenda et.",
"created_at": "2021-02-02T03:50:06.304+05:30",
"updated_at": "2021-02-02T03:50:06.304+05:30"
},
{
"id": 149,
"user_id": 149,
"title": "Cometes acidus vinum adeptio virtus patior calculus tenetur vindico nam cohaero magni caput amet civis conatus.",
"body": "Creber suadeo tenus. Ducimus sulum umbra. Undique torqueo toties. Pecco esse cedo. Supellex cenaculum astrum. Assumenda triduana accusamus. Harum sui dolor. In delectus textilis. Conor aranea solvo. Viscus abstergo cupiditate. Quo adipiscor acies. Damno et vulpes. Vehemens deprimo tum. Cohibeo quis supellex. Rerum subito est. Magnam aliquam caelum. Approbo teres accipio. Stips quo constans. Beatus delectatio auris. Arcus varius auctus. Et alveus deprecator. Deludo quam vero. Admitto tametsi debeo. Eum civis velit. Accendo catena arma. Absum adfectus ventito. Angelus ut aeger.",
"created_at": "2021-02-02T03:50:06.311+05:30",
"updated_at": "2021-02-02T03:50:06.311+05:30"
},
{
"id": 150,
"user_id": 150,
"title": "Teneo baiulus callide ultra porro nostrum vel aut somnus ut annus charisma cuius victus sed cariosus.",
"body": "Suus curso at. Defendo tenax deleo. Uredo attero votum. Theca asperiores viduo. Impedit curtus vestrum. Decet nihil admoneo. Omnis cogo fuga. Voluptas tempora cultura. Confido soleo spero. Amissio animi et. Tener ambulo adeo. Delibero comburo celebrer. Quam ultio somniculosus. Beatae chirographum ustulo. Apostolus degero aranea. Paens confugo rerum. Veritatis eum quia. Atavus terra quos. Tabernus tergiversatio conspergo. Vos crapula adipisci. Quo administratio amaritudo. Talus dignissimos aptus. Alveus suffragium villa. Damnatio subito deprecator.",
"created_at": "2021-02-02T03:50:06.331+05:30",
"updated_at": "2021-02-02T03:50:06.331+05:30"
}
]
}