{
"code": 200,
"meta": {
"pagination": {
"total": 1866,
"pages": 94,
"page": 1,
"limit": 20
}
},
"data": [
{
"id": 19,
"user_id": 14,
"title": "Cedo spoliatio ambulo decor eos volaticus alienus uterque.",
"completed": true,
"created_at": "2021-02-02T03:50:04.245+05:30",
"updated_at": "2021-02-02T03:50:04.245+05:30"
},
{
"id": 20,
"user_id": 15,
"title": "Libero custodia demo valens antepono aegre catena.",
"completed": false,
"created_at": "2021-02-02T03:50:04.269+05:30",
"updated_at": "2021-02-02T03:50:04.269+05:30"
},
{
"id": 21,
"user_id": 15,
"title": "Verumtamen vulticulus terga solvo traho sit thorax cupiditate xiphias.",
"completed": false,
"created_at": "2021-02-02T03:50:04.272+05:30",
"updated_at": "2021-02-02T03:50:04.272+05:30"
},
{
"id": 22,
"user_id": 16,
"title": "Caput accommodo arbitro custodia aro triumphus bardus vulgus adsuesco cupressus.",
"completed": false,
"created_at": "2021-02-02T03:50:04.288+05:30",
"updated_at": "2021-02-02T03:50:04.288+05:30"
},
{
"id": 23,
"user_id": 16,
"title": "Validus aspernatur dignissimos vinitor synagoga.",
"completed": false,
"created_at": "2021-02-02T03:50:04.289+05:30",
"updated_at": "2021-02-02T03:50:04.289+05:30"
},
{
"id": 24,
"user_id": 16,
"title": "Totus currus voveo admoneo undique tripudio quo solium.",
"completed": false,
"created_at": "2021-02-02T03:50:04.292+05:30",
"updated_at": "2021-02-02T03:50:04.292+05:30"
},
{
"id": 227,
"user_id": 135,
"title": "Cuppedia adaugeo repellat quia deserunt tutis.",
"completed": false,
"created_at": "2021-02-02T03:50:06.132+05:30",
"updated_at": "2021-02-02T03:50:06.132+05:30"
},
{
"id": 228,
"user_id": 135,
"title": "Acervus aptus theca excepturi casus quaerat studio temeritas.",
"completed": true,
"created_at": "2021-02-02T03:50:06.134+05:30",
"updated_at": "2021-02-02T03:50:06.134+05:30"
},
{
"id": 229,
"user_id": 135,
"title": "Amplus sulum aspicio adduco et super tergeo texo sit clam defero.",
"completed": true,
"created_at": "2021-02-02T03:50:06.136+05:30",
"updated_at": "2021-02-02T03:50:06.136+05:30"
},
{
"id": 230,
"user_id": 136,
"title": "Cubo demergo decretum venustas et confugo articulus annus itaque umquam tum.",
"completed": true,
"created_at": "2021-02-02T03:50:06.141+05:30",
"updated_at": "2021-02-02T03:50:06.141+05:30"
},
{
"id": 231,
"user_id": 136,
"title": "In odit audio certo ullus.",
"completed": true,
"created_at": "2021-02-02T03:50:06.143+05:30",
"updated_at": "2021-02-02T03:50:06.143+05:30"
},
{
"id": 232,
"user_id": 136,
"title": "Caput decumbo cena copiose quod pariatur laudantium.",
"completed": false,
"created_at": "2021-02-02T03:50:06.145+05:30",
"updated_at": "2021-02-02T03:50:06.145+05:30"
},
{
"id": 233,
"user_id": 137,
"title": "Deserunt vere collum tersus umquam nesciunt vis.",
"completed": true,
"created_at": "2021-02-02T03:50:06.168+05:30",
"updated_at": "2021-02-02T03:50:06.168+05:30"
},
{
"id": 234,
"user_id": 137,
"title": "Ut amitto cito quas sufficio bardus eum depono cuius corroboro canonicus.",
"completed": false,
"created_at": "2021-02-02T03:50:06.17+05:30",
"updated_at": "2021-02-02T03:50:06.17+05:30"
},
{
"id": 235,
"user_id": 137,
"title": "Volup sufficio aut solvo admiratio atrocitas condico inflammatio benevolentia velum conor.",
"completed": true,
"created_at": "2021-02-02T03:50:06.172+05:30",
"updated_at": "2021-02-02T03:50:06.172+05:30"
},
{
"id": 236,
"user_id": 138,
"title": "Vesica pecus tergiversatio paens patruus adicio demens defaeco.",
"completed": true,
"created_at": "2021-02-02T03:50:06.177+05:30",
"updated_at": "2021-02-02T03:50:06.177+05:30"
},
{
"id": 237,
"user_id": 139,
"title": "Venia tumultus cimentarius demum acceptus nemo vociferor auctus.",
"completed": true,
"created_at": "2021-02-02T03:50:06.192+05:30",
"updated_at": "2021-02-02T03:50:06.192+05:30"
},
{
"id": 238,
"user_id": 141,
"title": "Possimus doloremque derideo calco degusto tibi.",
"completed": true,
"created_at": "2021-02-02T03:50:06.2+05:30",
"updated_at": "2021-02-02T03:50:06.2+05:30"
},
{
"id": 239,
"user_id": 141,
"title": "Canto supellex virga explicabo sui confugo accedo omnis comis cimentarius callide.",
"completed": false,
"created_at": "2021-02-02T03:50:06.202+05:30",
"updated_at": "2021-02-02T03:50:06.202+05:30"
},
{
"id": 240,
"user_id": 143,
"title": "Venio solitudo conspergo architecto delego thymum color.",
"completed": true,
"created_at": "2021-02-02T03:50:06.218+05:30",
"updated_at": "2021-02-02T03:50:06.218+05:30"
}
]
}