{
"code": 200,
"meta": {
"pagination": {
"total": 1231,
"pages": 62,
"page": 1,
"limit": 20
}
},
"data": [
{
"id": 17,
"post_id": 16,
"name": "Shakuntala Shah",
"email": "shah_shakuntala@heaney-heathcote.io",
"body": "Nobis voluptas vero. Blanditiis qui amet.",
"created_at": "2021-02-02T03:50:04.238+05:30",
"updated_at": "2021-02-02T03:50:04.238+05:30"
},
{
"id": 18,
"post_id": 18,
"name": "Avani Desai",
"email": "avani_desai@schneider.co",
"body": "Consequatur ea reiciendis. Quibusdam quia nemo. Est enim optio.",
"created_at": "2021-02-02T03:50:04.256+05:30",
"updated_at": "2021-02-02T03:50:04.256+05:30"
},
{
"id": 19,
"post_id": 19,
"name": "Amaranaath Dutta",
"email": "dutta_amaranaath@stamm.name",
"body": "Unde nam assumenda. Magnam quibusdam totam. Itaque magnam consectetur.",
"created_at": "2021-02-02T03:50:04.265+05:30",
"updated_at": "2021-02-02T03:50:04.265+05:30"
},
{
"id": 20,
"post_id": 19,
"name": "Ms. Krishnadas Johar",
"email": "krishnadas_johar_ms@effertz-kuphal.org",
"body": "Voluptatem porro ullam. Adipisci rem esse. Quam dolores fugit. Porro quia voluptatum.",
"created_at": "2021-02-02T03:50:04.267+05:30",
"updated_at": "2021-02-02T03:50:04.267+05:30"
},
{
"id": 21,
"post_id": 20,
"name": "Jyotis Guneta Ret.",
"email": "guneta_ret_jyotis@kiehn.biz",
"body": "Aut ut asperiores. Doloribus ut eaque. Aliquam et expedita.",
"created_at": "2021-02-02T03:50:04.283+05:30",
"updated_at": "2021-02-02T03:50:04.283+05:30"
},
{
"id": 22,
"post_id": 20,
"name": "Puneet Nehru DO",
"email": "nehru_do_puneet@crona.name",
"body": "Autem earum animi. Voluptas nostrum ut. Temporibus aut neque.",
"created_at": "2021-02-02T03:50:04.285+05:30",
"updated_at": "2021-02-02T03:50:04.285+05:30"
},
{
"id": 137,
"post_id": 136,
"name": "Rep. Sher Patel",
"email": "patel_sher_rep@heathcote-hickle.name",
"body": "Qui quaerat in. Eos consequatur aut. Id repellat eaque. Vel et placeat.",
"created_at": "2021-02-02T03:50:06.16+05:30",
"updated_at": "2021-02-02T03:50:06.16+05:30"
},
{
"id": 138,
"post_id": 140,
"name": "Ravi Reddy",
"email": "reddy_ravi@sanford.biz",
"body": "Odit inventore eum.",
"created_at": "2021-02-02T03:50:06.216+05:30",
"updated_at": "2021-02-02T03:50:06.216+05:30"
},
{
"id": 139,
"post_id": 145,
"name": "Chandramohan Joshi",
"email": "chandramohan_joshi@goodwin-friesen.biz",
"body": "Quod et eum.",
"created_at": "2021-02-02T03:50:06.27+05:30",
"updated_at": "2021-02-02T03:50:06.27+05:30"
},
{
"id": 140,
"post_id": 147,
"name": "Ranjit Mahajan",
"email": "ranjit_mahajan@rempel.info",
"body": "Modi qui soluta. Dolorum laborum minima.",
"created_at": "2021-02-02T03:50:06.293+05:30",
"updated_at": "2021-02-02T03:50:06.293+05:30"
},
{
"id": 141,
"post_id": 147,
"name": "Kailash Somayaji",
"email": "kailash_somayaji@reilly-turner.biz",
"body": "Nam quia rerum. Dolorem dolor molestias.",
"created_at": "2021-02-02T03:50:06.296+05:30",
"updated_at": "2021-02-02T03:50:06.296+05:30"
},
{
"id": 142,
"post_id": 149,
"name": "Miss Dandak Nehru",
"email": "miss_nehru_dandak@carter.org",
"body": "Provident est consequatur. Vel et dignissimos. Facere omnis ut. Odit ut rerum.",
"created_at": "2021-02-02T03:50:06.314+05:30",
"updated_at": "2021-02-02T03:50:06.314+05:30"
},
{
"id": 143,
"post_id": 149,
"name": "Deepesh Tandon",
"email": "tandon_deepesh@stiedemann.io",
"body": "Possimus officia placeat. Autem at qui.",
"created_at": "2021-02-02T03:50:06.316+05:30",
"updated_at": "2021-02-02T03:50:06.316+05:30"
},
{
"id": 144,
"post_id": 150,
"name": "Chandran Pilla",
"email": "chandran_pilla@hayes.info",
"body": "Modi numquam reprehenderit.",
"created_at": "2021-02-02T03:50:06.333+05:30",
"updated_at": "2021-02-02T03:50:06.333+05:30"
},
{
"id": 145,
"post_id": 151,
"name": "Anish Chopra",
"email": "anish_chopra@rowe.net",
"body": "Aut quia quam. Explicabo non labore.",
"created_at": "2021-02-02T03:50:06.342+05:30",
"updated_at": "2021-02-02T03:50:06.342+05:30"
},
{
"id": 146,
"post_id": 151,
"name": "Fr. Swara Singh",
"email": "swara_singh_fr@bergnaum-koch.info",
"body": "Recusandae veniam quis. Consequuntur ut voluptatem. Blanditiis similique velit.",
"created_at": "2021-02-02T03:50:06.344+05:30",
"updated_at": "2021-02-02T03:50:06.344+05:30"
},
{
"id": 147,
"post_id": 152,
"name": "Hiranmaya Mukhopadhyay",
"email": "mukhopadhyay_hiranmaya@gerhold-mraz.name",
"body": "Temporibus ut qui. Id et veniam.",
"created_at": "2021-02-02T03:50:06.357+05:30",
"updated_at": "2021-02-02T03:50:06.357+05:30"
},
{
"id": 148,
"post_id": 152,
"name": "Akshata Embranthiri",
"email": "akshata_embranthiri@larkin-lakin.biz",
"body": "Consequatur optio sit. Occaecati vitae similique. Officiis blanditiis quis. Velit error minus.",
"created_at": "2021-02-02T03:50:06.36+05:30",
"updated_at": "2021-02-02T03:50:06.36+05:30"
},
{
"id": 149,
"post_id": 153,
"name": "The Hon. Bhishma Nambeesan",
"email": "bhishma_the_hon_nambeesan@mcclure-fay.io",
"body": "Repellendus perspiciatis sequi. Ratione sint harum.",
"created_at": "2021-02-02T03:50:06.368+05:30",
"updated_at": "2021-02-02T03:50:06.368+05:30"
},
{
"id": 150,
"post_id": 153,
"name": "Divya Gandhi",
"email": "gandhi_divya@bogan.org",
"body": "Aut aperiam pariatur. Vero quidem illum. Autem aut autem. Error maiores consequatur.",
"created_at": "2021-02-02T03:50:06.371+05:30",
"updated_at": "2021-02-02T03:50:06.371+05:30"
}
]
}